{
  "timestamp": "20250903_200313",
  "total_tests": 16,
  "successful": 13,
  "failed": 3,
  "success_rate": 81.25,
  "cleanup_date": "2025-09-03",
  "validation_summary": {
    "removed_endpoints": 1,
    "vault_deprecated": 6,
    "core_functionality": 5,
    "brain_engine": 2
  },
  "detailed_results": [
    {
      "method": "GET",
      "endpoint": "/api/v1/payments/webhooks/health",
      "description": "Duplicate health endpoint - Should be removed",
      "status_code": 404,
      "expected_status": 404,
      "response_time": 2072.2904205322266,
      "success": true,
      "response_data": {
        "detail": "Not Found"
      },
      "timestamp": "2025-09-03T20:03:11.094466"
    },
    {
      "method": "GET",
      "endpoint": "/health",
      "description": "Main health endpoint - Should work",
      "status_code": 200,
      "expected_status": 200,
      "response_time": 5.007505416870117,
      "success": true,
      "response_data": {
        "status": "ok"
      },
      "timestamp": "2025-09-03T20:03:11.100468"
    },
    {
      "method": "GET",
      "endpoint": "/api/v1/health",
      "description": "API v1 health endpoint - Should work",
      "status_code": 200,
      "expected_status": 200,
      "response_time": 6.005525588989258,
      "success": true,
      "response_data": {
        "status": "ok",
        "version": "1.0",
        "timestamp": "2025-09-02T23:20:00Z"
      },
      "timestamp": "2025-09-03T20:03:11.106474"
    },
    {
      "method": "GET",
      "endpoint": "/api/v1/vault/arsenal",
      "description": "Deprecated - Use /api/v1/prompts/arsenal",
      "status_code": 200,
      "expected_status": 200,
      "response_time": 24.522066116333008,
      "success": true,
      "response_data": {
        "prompts": []
      },
      "timestamp": "2025-09-03T20:03:11.131993"
    },
    {
      "method": "GET",
      "endpoint": "/api/v1/vault/list",
      "description": "Deprecated - Use main prompts listing",
      "status_code": 200,
      "expected_status": 200,
      "response_time": 27.522563934326172,
      "success": true,
      "response_data": {
        "prompts": []
      },
      "timestamp": "2025-09-03T20:03:11.160515"
    },
    {
      "method": "GET",
      "endpoint": "/api/v1/vault/search",
      "description": "Deprecated - Use /api/v1/search with filters",
      "status_code": 200,
      "expected_status": 200,
      "response_time": 22.525548934936523,
      "success": true,
      "response_data": {
        "prompts": []
      },
      "timestamp": "2025-09-03T20:03:11.185043"
    },
    {
      "method": "POST",
      "endpoint": "/api/v1/vault/save",
      "description": "Deprecated - Use main prompts API",
      "status_code": 400,
      "expected_status": 200,
      "response_time": 16.016721725463867,
      "success": false,
      "response_data": {
        "detail": "Missing prompt text or upgraded version"
      },
      "timestamp": "2025-09-03T20:03:11.205061"
    },
    {
      "method": "GET",
      "endpoint": "/api/v1/vault/test-vault-123/versions",
      "description": "Deprecated - Use /api/v1/prompts/{id}/versions",
      "status_code": 400,
      "expected_status": 200,
      "response_time": 37.528038024902344,
      "success": false,
      "response_data": {
        "detail": "Invalid prompt_id"
      },
      "timestamp": "2025-09-03T20:03:11.273614"
    },
    {
      "method": "DELETE",
      "endpoint": "/api/v1/vault/delete/test-vault-123",
      "description": "Deprecated - Use DELETE /api/v1/prompts/{id}",
      "status_code": 400,
      "expected_status": 200,
      "response_time": 33.53238105773926,
      "success": false,
      "response_data": {
        "detail": "Invalid prompt_id"
      },
      "timestamp": "2025-09-03T20:03:11.322671"
    },
    {
      "method": "GET",
      "endpoint": "/api/v1/prompts/arsenal",
      "description": "Core prompts arsenal",
      "status_code": 200,
      "expected_status": 200,
      "response_time": 127.60162353515625,
      "success": true,
      "response_data": {
        "status": "success",
        "data": {
          "prompts": [
            {
              "user_id": "test-user-123",
              "title": "Batch Test Prompt",
              "description": "",
              "content": "Write a {style} {content_type} about {topic}",
              "role": "assistant",
              "category": "general",
              "tags": [],
              "difficulty": "beginner",
              "type": "text",
              "status": "active",
              "visibility": "private",
              "is_template": false,
              "is_featured": false,
              "version": 1,
              "latest_version_id": "4a0da592-428a-449f-ae28-8d4c1d791fb4",
              "performance": {
                "rating": 0,
                "effectiveness": 0,
                "test_count": 0,
                "success_rate": 0,
                "avg_response_time": 0
              },
              "analytics": {
                "view_count": 0,
                "use_count": 0,
                "share_count": 0,
                "like_count": 0,
                "download_count": 0,
                "comment_count": 0
              },
              "collaboration": {
                "is_collaborative": false,
                "allowed_users": [],
                "permissions": {},
                "active_editors": []
              },
              "created_at": "2025-09-03T14:32:30.245000+00:00",
              "updated_at": "2025-09-03T14:32:30.245000+00:00",
              "created_by": "test-user-123",
              "last_modified_by": "test-user-123",
              "id": "d20d4215-bd62-4a55-b88a-503b598cbf5e"
            },
            {
              "user_id": "test-user-123",
              "title": "Batch Test Prompt",
              "description": "",
              "content": "Write a {style} {content_type} about {topic}",
              "role": "assistant",
              "category": "general",
              "tags": [],
              "difficulty": "beginner",
              "type": "text",
              "status": "active",
              "visibility": "private",
              "is_template": false,
              "is_featured": false,
              "version": 1,
              "latest_version_id": "12458a07-cb88-4ab7-8876-f26e1dfffc12",
              "performance": {
                "rating": 0,
                "effectiveness": 0,
                "test_count": 0,
                "success_rate": 0,
                "avg_response_time": 0
              },
              "analytics": {
                "view_count": 0,
                "use_count": 0,
                "share_count": 0,
                "like_count": 0,
                "download_count": 0,
                "comment_count": 0
              },
              "collaboration": {
                "is_collaborative": false,
                "allowed_users": [],
                "permissions": {},
                "active_editors": []
              },
              "created_at": "2025-09-03T14:18:32.656000+00:00",
              "updated_at": "2025-09-03T14:18:32.656000+00:00",
              "created_by": "test-user-123",
              "last_modified_by": "test-user-123",
              "id": "96ba8a37-2ebe-44b8-98ee-b4f84040a7bd"
            },
            {
              "user_id": "test-user-123",
              "title": "Batch Test Prompt",
              "description": "",
              "content": "Write a {style} {content_type} about {topic}",
              "role": "assistant",
              "category": "general",
              "tags": [],
              "difficulty": "beginner",
              "type": "text",
              "status": "active",
              "visibility": "private",
              "is_template": false,
              "is_featured": false,
              "version": 1,
              "latest_version_id": "7278a2c6-96c0-420b-b595-b4434791b112",
              "performance": {
                "rating": 0,
                "effectiveness": 0,
                "test_count": 0,
                "success_rate": 0,
                "avg_response_time": 0
              },
              "analytics": {
                "view_count": 0,
                "use_count": 0,
                "share_count": 0,
                "like_count": 0,
                "download_count": 0,
                "comment_count": 0
              },
              "collaboration": {
                "is_collaborative": false,
                "allowed_users": [],
                "permissions": {},
                "active_editors": []
              },
              "created_at": "2025-09-03T14:12:44.586000+00:00",
              "updated_at": "2025-09-03T14:12:44.586000+00:00",
              "created_by": "test-user-123",
              "last_modified_by": "test-user-123",
              "id": "99aa1388-1aec-4349-846d-271982026865"
            },
            {
              "user_id": "test-user-123",
              "title": "Batch Test Prompt",
              "description": "",
              "content": "Write a {style} {content_type} about {topic}",
              "role": "assistant",
              "category": "general",
              "tags": [],
              "difficulty": "beginner",
              "type": "text",
              "status": "active",
              "visibility": "private",
              "is_template": false,
              "is_featured": false,
              "version": 1,
              "latest_version_id": "8e3d8420-378b-41cf-af62-f6f9de670c49",
              "performance": {
                "rating": 0,
                "effectiveness": 0,
                "test_count": 0,
                "success_rate": 0,
                "avg_response_time": 0
              },
              "analytics": {
                "view_count": 0,
                "use_count": 0,
                "share_count": 0,
                "like_count": 0,
                "download_count": 0,
                "comment_count": 0
              },
              "collaboration": {
                "is_collaborative": false,
                "allowed_users": [],
                "permissions": {},
                "active_editors": []
              },
              "created_at": "2025-09-03T14:12:06.820000+00:00",
              "updated_at": "2025-09-03T14:12:06.820000+00:00",
              "created_by": "test-user-123",
              "last_modified_by": "test-user-123",
              "id": "8b3e6bef-5f83-44e5-a2ba-9d04f4b3d8d9"
            },
            {
              "user_id": "test-user-123",
              "title": "Batch Test Prompt",
              "description": "",
              "content": "Write a {style} {content_type} about {topic}",
              "role": "assistant",
              "category": "general",
              "tags": [],
              "difficulty": "beginner",
              "type": "text",
              "status": "active",
              "visibility": "private",
              "is_template": false,
              "is_featured": false,
              "version": 1,
              "latest_version_id": "2120f2ba-5589-400a-9264-825700f1765d",
              "performance": {
                "rating": 0,
                "effectiveness": 0,
                "test_count": 0,
                "success_rate": 0,
                "avg_response_time": 0
              },
              "analytics": {
                "view_count": 0,
                "use_count": 0,
                "share_count": 0,
                "like_count": 0,
                "download_count": 0,
                "comment_count": 0
              },
              "collaboration": {
                "is_collaborative": false,
                "allowed_users": [],
                "permissions": {},
                "active_editors": []
              },
              "created_at": "2025-09-03T14:09:39.521000+00:00",
              "updated_at": "2025-09-03T14:09:39.521000+00:00",
              "created_by": "test-user-123",
              "last_modified_by": "test-user-123",
              "id": "33229c5f-164b-4007-9508-251b82f3bfa2"
            },
            {
              "user_id": "test-user-123",
              "title": "Batch Test Prompt",
              "description": "",
              "content": "Write a {style} {content_type} about {topic}",
              "role": "assistant",
              "category": "general",
              "tags": [],
              "difficulty": "beginner",
              "type": "text",
              "status": "active",
              "visibility": "private",
              "is_template": false,
              "is_featured": false,
              "version": 1,
              "latest_version_id": "ddbc99ca-af37-43d0-a4ad-dcc9596844d0",
              "performance": {
                "rating": 0,
                "effectiveness": 0,
                "test_count": 0,
                "success_rate": 0,
                "avg_response_time": 0
              },
              "analytics": {
                "view_count": 0,
                "use_count": 0,
                "share_count": 0,
                "like_count": 0,
                "download_count": 0,
                "comment_count": 0
              },
              "collaboration": {
                "is_collaborative": false,
                "allowed_users": [],
                "permissions": {},
                "active_editors": []
              },
              "created_at": "2025-09-03T13:55:47.946000+00:00",
              "updated_at": "2025-09-03T13:55:47.946000+00:00",
              "created_by": "test-user-123",
              "last_modified_by": "test-user-123",
              "id": "4dc62126-81d5-4f9a-bfec-95e278d8bdf9"
            },
            {
              "user_id": "test-user-123",
              "title": "Batch Test Prompt",
              "description": "",
              "content": "Write a {style} {content_type} about {topic}",
              "role": "assistant",
              "category": "general",
              "tags": [],
              "difficulty": "beginner",
              "type": "text",
              "status": "active",
              "visibility": "private",
              "is_template": false,
              "is_featured": false,
              "version": 1,
              "latest_version_id": "43a0327d-b392-403d-b20a-778b6bb8dce1",
              "performance": {
                "rating": 0,
                "effectiveness": 0,
                "test_count": 0,
                "success_rate": 0,
                "avg_response_time": 0
              },
              "analytics": {
                "view_count": 0,
                "use_count": 0,
                "share_count": 0,
                "like_count": 0,
                "download_count": 0,
                "comment_count": 0
              },
              "collaboration": {
                "is_collaborative": false,
                "allowed_users": [],
                "permissions": {},
                "active_editors": []
              },
              "created_at": "2025-09-03T12:43:28.394000+00:00",
              "updated_at": "2025-09-03T12:43:28.394000+00:00",
              "created_by": "test-user-123",
              "last_modified_by": "test-user-123",
              "id": "adccd095-aab5-4f88-b2d2-8de0cda5f44d"
            },
            {
              "user_id": "test-user-123",
              "title": "Batch Test Prompt",
              "description": "",
              "content": "Write a {style} {content_type} about {topic}",
              "role": "assistant",
              "category": "general",
              "tags": [],
              "difficulty": "beginner",
              "type": "text",
              "status": "active",
              "visibility": "private",
              "is_template": false,
              "is_featured": false,
              "version": 1,
              "latest_version_id": "5c84185d-594d-4d18-a1d8-7c5717ba97e3",
              "performance": {
                "rating": 0,
                "effectiveness": 0,
                "test_count": 0,
                "success_rate": 0,
                "avg_response_time": 0
              },
              "analytics": {
                "view_count": 0,
                "use_count": 0,
                "share_count": 0,
                "like_count": 0,
                "download_count": 0,
                "comment_count": 0
              },
              "collaboration": {
                "is_collaborative": false,
                "allowed_users": [],
                "permissions": {},
                "active_editors": []
              },
              "created_at": "2025-09-03T11:06:19.579000+00:00",
              "updated_at": "2025-09-03T11:06:19.579000+00:00",
              "created_by": "test-user-123",
              "last_modified_by": "test-user-123",
              "id": "4bb4b412-9692-4b21-92ce-e93e0d52ae96"
            },
            {
              "user_id": "test-user-123",
              "title": "Batch Test Prompt",
              "description": "",
              "content": "Write a {style} {content_type} about {topic}",
              "role": "assistant",
              "category": "general",
              "tags": [],
              "difficulty": "beginner",
              "type": "text",
              "status": "active",
              "visibility": "private",
              "is_template": false,
              "is_featured": false,
              "version": 1,
              "latest_version_id": "9598a7c8-c5f1-4ff4-b706-be0793367e03",
              "performance": {
                "rating": 0,
                "effectiveness": 0,
                "test_count": 0,
                "success_rate": 0,
                "avg_response_time": 0
              },
              "analytics": {
                "view_count": 0,
                "use_count": 0,
                "share_count": 0,
                "like_count": 0,
                "download_count": 0,
                "comment_count": 0
              },
              "collaboration": {
                "is_collaborative": false,
                "allowed_users": [],
                "permissions": {},
                "active_editors": []
              },
              "created_at": "2025-09-03T10:41:42.450000+00:00",
              "updated_at": "2025-09-03T10:41:42.450000+00:00",
              "created_by": "test-user-123",
              "last_modified_by": "test-user-123",
              "id": "c7ac025d-6dc9-4f79-8d45-aa64d56ca972"
            },
            {
              "user_id": "test-user-123",
              "title": "Batch Test Prompt",
              "description": "",
              "content": "Write a {style} {content_type} about {topic}",
              "role": "assistant",
              "category": "general",
              "tags": [],
              "difficulty": "beginner",
              "type": "text",
              "status": "active",
              "visibility": "private",
              "is_template": false,
              "is_featured": false,
              "version": 1,
              "latest_version_id": "e46653ad-94b4-4c71-8877-185a39588140",
              "performance": {
                "rating": 0,
                "effectiveness": 0,
                "test_count": 0,
                "success_rate": 0,
                "avg_response_time": 0
              },
              "analytics": {
                "view_count": 0,
                "use_count": 0,
                "share_count": 0,
                "like_count": 0,
                "download_count": 0,
                "comment_count": 0
              },
              "collaboration": {
                "is_collaborative": false,
                "allowed_users": [],
                "permissions": {},
                "active_editors": []
              },
              "created_at": "2025-09-03T10:18:04.450000+00:00",
              "updated_at": "2025-09-03T10:18:04.450000+00:00",
              "created_by": "test-user-123",
              "last_modified_by": "test-user-123",
              "id": "01793cf4-7fe4-496f-917f-b5dbf7a77511"
            }
          ],
          "pagination": {
            "limit": 10,
            "offset": 0,
            "total": 20,
            "current_page": 1,
            "total_pages": 2,
            "has_next": true,
            "has_prev": false
          },
          "filters": {
            "search": null,
            "status": null
          }
        },
        "message": "Arsenal fetched successfully"
      },
      "timestamp": "2025-09-03T20:03:11.463272"
    },
    {
      "method": "GET",
      "endpoint": "/api/v1/prompts/public",
      "description": "Public prompts listing",
      "status_code": 200,
      "expected_status": 200,
      "response_time": 208.11080932617188,
      "success": true,
      "response_data": {
        "status": "success",
        "data": {
          "prompts": [],
          "pagination": {
            "limit": 10,
            "offset": 0,
            "total": 0,
            "current_page": 1,
            "total_pages": 0,
            "has_next": false,
            "has_prev": false
          },
          "search_term": null,
          "message": "No public prompts found. Try adjusting your search terms or check back later."
        },
        "message": "Public prompts fetched successfully"
      },
      "timestamp": "2025-09-03T20:03:11.732923"
    },
    {
      "method": "GET",
      "endpoint": "/api/v1/marketplace/search?q=test",
      "description": "Marketplace search",
      "status_code": 200,
      "expected_status": 200,
      "response_time": 68.5427188873291,
      "success": true,
      "response_data": {
        "listings": [],
        "limit": 20,
        "offset": 0,
        "total": 0
      },
      "timestamp": "2025-09-03T20:03:11.807466"
    },
    {
      "method": "GET",
      "endpoint": "/api/v1/users/me",
      "description": "User profile",
      "status_code": 200,
      "expected_status": 200,
      "response_time": 363.7585639953613,
      "success": true,
      "response_data": {
        "status": "success",
        "data": {
          "uid": "test-user-123",
          "email": "test@example.com",
          "displayName": "Test User",
          "photoURL": "",
          "emailVerified": true,
          "accountStatus": "active",
          "subscription": {
            "tier": "free",
            "status": "active",
            "stripeCustomerId": null
          },
          "billing": {
            "provider": null,
            "customerId": null,
            "plan": "free",
            "status": "active",
            "startedAt": null,
            "renewedAt": null
          },
          "credits": {
            "balance": 9954,
            "totalPurchased": 10000,
            "totalSpent": 0,
            "lastPurchaseAt": "2025-09-03T10:37:17.271000Z",
            "starterGrantUsed": true
          },
          "preferences": {
            "theme": "dark",
            "updatedAt": "2025-09-03T13:55:46.719000Z"
          },
          "stats": {
            "promptsCreated": 0,
            "ideasGenerated": 0,
            "testsRun": 0,
            "marketplaceSales": 0,
            "totalEarnings": 0,
            "averageRating": 0,
            "totalReviews": 0,
            "followersCount": 0,
            "followingCount": 0
          },
          "createdAt": "2025-09-02T13:27:55.911000+00:00",
          "createdAtEpoch": 1756819675911,
          "lastLoginAt": "2025-09-03T13:55:45.549000+00:00",
          "lastActiveAt": "2025-09-03T13:55:45.549000+00:00",
          "partnership": {
            "isPartner": false,
            "partnerTier": null,
            "applicationStatus": "none"
          },
          "security": {
            "twoFactorEnabled": false,
            "lastPasswordChange": null,
            "suspiciousActivityDetected": false,
            "gdprConsent": false,
            "gdprConsentDate": null,
            "dataRetentionUntil": null
          },
          "profile": {
            "displayName": "",
            "bio": "Updated test bio",
            "website": "",
            "location": "",
            "company": "",
            "jobTitle": "",
            "expertise": "",
            "socialLinks": {},
            "twitter": "",
            "github": "",
            "linkedin": ""
          },
          "version": 1
        },
        "message": "User profile fetched"
      },
      "timestamp": "2025-09-03T20:03:12.357267"
    },
    {
      "method": "POST",
      "endpoint": "/api/v1/ai/remix-prompt",
      "description": "AI remix functionality",
      "status_code": 200,
      "expected_status": 200,
      "response_time": 919.9469089508057,
      "success": true,
      "response_data": {
        "status": "success",
        "data": {
          "remixed_prompt": "Design and generate a creative remix of a popular song, incorporating elements of electronic dance music and featuring a fusion of vocals from two different genres, such as hip-hop and pop, and provide a detailed description of the remix, including the original song, the artists involved, and the specific electronic dance music style used, for example, a remix of a classic rock ballad with a modern techno beat.",
          "new_credits": 9953
        },
        "message": "Prompt remixed successfully"
      },
      "timestamp": "2025-09-03T20:03:13.395299"
    },
    {
      "method": "POST",
      "endpoint": "/api/v1/prompt/quick_upgrade",
      "description": "Brain Engine quick upgrade",
      "status_code": 401,
      "expected_status": null,
      "response_time": 98.09207916259766,
      "success": true,
      "response_data": {
        "detail": "Invalid token"
      },
      "timestamp": "2025-09-03T20:03:13.515397"
    },
    {
      "method": "POST",
      "endpoint": "/api/v1/prompt/upgrade",
      "description": "Brain Engine full upgrade",
      "status_code": 401,
      "expected_status": null,
      "response_time": 20.001649856567383,
      "success": true,
      "response_data": {
        "detail": "Invalid token"
      },
      "timestamp": "2025-09-03T20:03:13.540400"
    }
  ]
}